DEBUG - 2016-05-17 12:50:17 --> UTF-8 Support Enabled
DEBUG - 2016-05-17 12:50:17 --> Global POST, GET and COOKIE data sanitized
DEBUG - 2016-05-17 12:50:17 --> Config file loaded: D:\xampp\htdocs\miapi\application\config/rest.php
ERROR - 2016-05-17 12:50:17 --> Severity: Warning --> Missing argument 1 for Test::hashtag_get() D:\xampp\htdocs\miapi\application\controllers\Test.php 89
ERROR - 2016-05-17 12:50:17 --> Severity: Notice --> Undefined variable: str D:\xampp\htdocs\miapi\application\controllers\Test.php 91
DEBUG - 2016-05-17 12:50:17 --> Total execution time: 0.3905
DEBUG - 2016-05-17 12:50:28 --> UTF-8 Support Enabled
DEBUG - 2016-05-17 12:50:28 --> Global POST, GET and COOKIE data sanitized
DEBUG - 2016-05-17 12:50:29 --> Config file loaded: D:\xampp\htdocs\miapi\application\config/rest.php
DEBUG - 2016-05-17 12:50:29 --> Total execution time: 0.0429
DEBUG - 2016-05-17 12:50:37 --> UTF-8 Support Enabled
DEBUG - 2016-05-17 12:50:37 --> Global POST, GET and COOKIE data sanitized
DEBUG - 2016-05-17 12:50:37 --> Config file loaded: D:\xampp\htdocs\miapi\application\config/rest.php
DEBUG - 2016-05-17 12:50:37 --> Total execution time: 0.0334
DEBUG - 2016-05-17 12:51:06 --> UTF-8 Support Enabled
DEBUG - 2016-05-17 12:51:06 --> Global POST, GET and COOKIE data sanitized
DEBUG - 2016-05-17 12:51:06 --> Config file loaded: D:\xampp\htdocs\miapi\application\config/rest.php
DEBUG - 2016-05-17 12:51:06 --> Total execution time: 0.0535
DEBUG - 2016-05-17 12:51:07 --> UTF-8 Support Enabled
DEBUG - 2016-05-17 12:51:07 --> Global POST, GET and COOKIE data sanitized
DEBUG - 2016-05-17 12:51:07 --> Config file loaded: D:\xampp\htdocs\miapi\application\config/rest.php
DEBUG - 2016-05-17 12:51:07 --> Total execution time: 0.0535
DEBUG - 2016-05-17 12:51:27 --> UTF-8 Support Enabled
DEBUG - 2016-05-17 12:51:27 --> Global POST, GET and COOKIE data sanitized
ERROR - 2016-05-17 12:51:27 --> Severity: Parsing Error --> syntax error, unexpected '0' (T_LNUMBER), expecting variable (T_VARIABLE) or '$' D:\xampp\htdocs\miapi\application\controllers\Test.php 94
DEBUG - 2016-05-17 12:51:45 --> UTF-8 Support Enabled
DEBUG - 2016-05-17 12:51:45 --> Global POST, GET and COOKIE data sanitized
DEBUG - 2016-05-17 12:51:45 --> Config file loaded: D:\xampp\htdocs\miapi\application\config/rest.php
ERROR - 2016-05-17 12:51:45 --> Severity: Warning --> Missing argument 1 for Test::hashtag_get() D:\xampp\htdocs\miapi\application\controllers\Test.php 89
ERROR - 2016-05-17 12:51:45 --> Severity: Notice --> Undefined variable: str D:\xampp\htdocs\miapi\application\controllers\Test.php 91
DEBUG - 2016-05-17 12:51:45 --> Total execution time: 0.0446
DEBUG - 2016-05-17 12:51:48 --> UTF-8 Support Enabled
DEBUG - 2016-05-17 12:51:48 --> Global POST, GET and COOKIE data sanitized
DEBUG - 2016-05-17 12:51:48 --> Config file loaded: D:\xampp\htdocs\miapi\application\config/rest.php
ERROR - 2016-05-17 12:51:48 --> Severity: Warning --> Missing argument 1 for Test::hashtag_get() D:\xampp\htdocs\miapi\application\controllers\Test.php 89
ERROR - 2016-05-17 12:51:48 --> Severity: Notice --> Undefined variable: str D:\xampp\htdocs\miapi\application\controllers\Test.php 91
DEBUG - 2016-05-17 12:51:48 --> Total execution time: 0.0527
DEBUG - 2016-05-17 12:52:43 --> UTF-8 Support Enabled
DEBUG - 2016-05-17 12:52:43 --> Global POST, GET and COOKIE data sanitized
DEBUG - 2016-05-17 12:52:43 --> Config file loaded: D:\xampp\htdocs\miapi\application\config/rest.php
ERROR - 2016-05-17 12:52:43 --> Severity: Warning --> Missing argument 1 for Test::hashtag_get() D:\xampp\htdocs\miapi\application\controllers\Test.php 89
ERROR - 2016-05-17 12:52:43 --> Severity: Notice --> Undefined variable: str D:\xampp\htdocs\miapi\application\controllers\Test.php 93
DEBUG - 2016-05-17 12:52:43 --> Total execution time: 0.0386
DEBUG - 2016-05-17 12:52:51 --> UTF-8 Support Enabled
DEBUG - 2016-05-17 12:52:51 --> Global POST, GET and COOKIE data sanitized
DEBUG - 2016-05-17 12:52:51 --> Config file loaded: D:\xampp\htdocs\miapi\application\config/rest.php
DEBUG - 2016-05-17 12:52:51 --> Total execution time: 0.0446
DEBUG - 2016-05-17 12:53:33 --> UTF-8 Support Enabled
DEBUG - 2016-05-17 12:53:33 --> Global POST, GET and COOKIE data sanitized
DEBUG - 2016-05-17 12:53:33 --> Config file loaded: D:\xampp\htdocs\miapi\application\config/rest.php
ERROR - 2016-05-17 12:53:33 --> Severity: Notice --> Array to string conversion D:\xampp\htdocs\miapi\application\controllers\Test.php 97
DEBUG - 2016-05-17 12:53:33 --> Total execution time: 0.0575
DEBUG - 2016-05-17 12:54:29 --> UTF-8 Support Enabled
DEBUG - 2016-05-17 12:54:29 --> Global POST, GET and COOKIE data sanitized
DEBUG - 2016-05-17 12:54:29 --> Config file loaded: D:\xampp\htdocs\miapi\application\config/rest.php
ERROR - 2016-05-17 12:54:29 --> Severity: Notice --> Undefined variable: string D:\xampp\htdocs\miapi\application\controllers\Test.php 92
ERROR - 2016-05-17 12:54:29 --> Severity: Notice --> Array to string conversion D:\xampp\htdocs\miapi\application\controllers\Test.php 98
DEBUG - 2016-05-17 12:54:29 --> Total execution time: 0.0531
DEBUG - 2016-05-17 12:54:44 --> UTF-8 Support Enabled
DEBUG - 2016-05-17 12:54:44 --> Global POST, GET and COOKIE data sanitized
DEBUG - 2016-05-17 12:54:44 --> Config file loaded: D:\xampp\htdocs\miapi\application\config/rest.php
ERROR - 2016-05-17 12:54:44 --> Severity: Notice --> Array to string conversion D:\xampp\htdocs\miapi\application\controllers\Test.php 98
DEBUG - 2016-05-17 12:54:44 --> Total execution time: 0.0480
DEBUG - 2016-05-17 12:54:54 --> UTF-8 Support Enabled
DEBUG - 2016-05-17 12:54:54 --> Global POST, GET and COOKIE data sanitized
DEBUG - 2016-05-17 12:54:54 --> Config file loaded: D:\xampp\htdocs\miapi\application\config/rest.php
DEBUG - 2016-05-17 12:54:54 --> Total execution time: 0.0469
DEBUG - 2016-05-17 12:55:11 --> UTF-8 Support Enabled
DEBUG - 2016-05-17 12:55:11 --> Global POST, GET and COOKIE data sanitized
DEBUG - 2016-05-17 12:55:11 --> Config file loaded: D:\xampp\htdocs\miapi\application\config/rest.php
DEBUG - 2016-05-17 12:55:11 --> Total execution time: 0.0515
DEBUG - 2016-05-17 12:55:15 --> UTF-8 Support Enabled
DEBUG - 2016-05-17 12:55:15 --> Global POST, GET and COOKIE data sanitized
DEBUG - 2016-05-17 12:55:15 --> Config file loaded: D:\xampp\htdocs\miapi\application\config/rest.php
DEBUG - 2016-05-17 12:55:15 --> Total execution time: 0.0677
DEBUG - 2016-05-17 12:55:15 --> UTF-8 Support Enabled
DEBUG - 2016-05-17 12:55:15 --> Global POST, GET and COOKIE data sanitized
DEBUG - 2016-05-17 12:55:15 --> Config file loaded: D:\xampp\htdocs\miapi\application\config/rest.php
DEBUG - 2016-05-17 12:55:15 --> Total execution time: 0.0509
DEBUG - 2016-05-17 12:55:16 --> UTF-8 Support Enabled
DEBUG - 2016-05-17 12:55:16 --> Global POST, GET and COOKIE data sanitized
DEBUG - 2016-05-17 12:55:16 --> Config file loaded: D:\xampp\htdocs\miapi\application\config/rest.php
DEBUG - 2016-05-17 12:55:16 --> Total execution time: 0.0461
DEBUG - 2016-05-17 12:55:16 --> UTF-8 Support Enabled
DEBUG - 2016-05-17 12:55:16 --> Global POST, GET and COOKIE data sanitized
DEBUG - 2016-05-17 12:55:16 --> Config file loaded: D:\xampp\htdocs\miapi\application\config/rest.php
DEBUG - 2016-05-17 12:55:16 --> Total execution time: 0.0565
DEBUG - 2016-05-17 12:55:16 --> UTF-8 Support Enabled
DEBUG - 2016-05-17 12:55:16 --> Global POST, GET and COOKIE data sanitized
DEBUG - 2016-05-17 12:55:16 --> Config file loaded: D:\xampp\htdocs\miapi\application\config/rest.php
DEBUG - 2016-05-17 12:55:16 --> Total execution time: 0.0494
DEBUG - 2016-05-17 12:55:29 --> UTF-8 Support Enabled
DEBUG - 2016-05-17 12:55:29 --> Global POST, GET and COOKIE data sanitized
DEBUG - 2016-05-17 12:55:29 --> Config file loaded: D:\xampp\htdocs\miapi\application\config/rest.php
DEBUG - 2016-05-17 12:55:29 --> Total execution time: 0.0433
DEBUG - 2016-05-17 12:55:40 --> UTF-8 Support Enabled
DEBUG - 2016-05-17 12:55:40 --> Global POST, GET and COOKIE data sanitized
DEBUG - 2016-05-17 12:55:40 --> Config file loaded: D:\xampp\htdocs\miapi\application\config/rest.php
DEBUG - 2016-05-17 12:55:40 --> Total execution time: 0.0536
DEBUG - 2016-05-17 12:56:36 --> UTF-8 Support Enabled
DEBUG - 2016-05-17 12:56:36 --> Global POST, GET and COOKIE data sanitized
DEBUG - 2016-05-17 12:56:36 --> Config file loaded: D:\xampp\htdocs\miapi\application\config/rest.php
DEBUG - 2016-05-17 12:56:36 --> Total execution time: 0.0437
DEBUG - 2016-05-17 12:56:54 --> UTF-8 Support Enabled
DEBUG - 2016-05-17 12:56:54 --> Global POST, GET and COOKIE data sanitized
DEBUG - 2016-05-17 12:56:54 --> Config file loaded: D:\xampp\htdocs\miapi\application\config/rest.php
DEBUG - 2016-05-17 12:56:54 --> Total execution time: 0.0678
DEBUG - 2016-05-17 12:57:04 --> UTF-8 Support Enabled
DEBUG - 2016-05-17 12:57:04 --> Global POST, GET and COOKIE data sanitized
DEBUG - 2016-05-17 12:57:04 --> Config file loaded: D:\xampp\htdocs\miapi\application\config/rest.php
DEBUG - 2016-05-17 12:57:04 --> Total execution time: 0.0468
DEBUG - 2016-05-17 12:57:30 --> UTF-8 Support Enabled
DEBUG - 2016-05-17 12:57:30 --> Global POST, GET and COOKIE data sanitized
DEBUG - 2016-05-17 12:57:30 --> Config file loaded: D:\xampp\htdocs\miapi\application\config/rest.php
ERROR - 2016-05-17 12:57:30 --> Severity: Notice --> Undefined variable: string D:\xampp\htdocs\miapi\application\controllers\Test.php 92
DEBUG - 2016-05-17 12:57:30 --> Total execution time: 0.0593
DEBUG - 2016-05-17 12:57:40 --> UTF-8 Support Enabled
DEBUG - 2016-05-17 12:57:40 --> Global POST, GET and COOKIE data sanitized
DEBUG - 2016-05-17 12:57:40 --> Config file loaded: D:\xampp\htdocs\miapi\application\config/rest.php
DEBUG - 2016-05-17 12:57:40 --> Total execution time: 0.0619
DEBUG - 2016-05-17 16:01:04 --> UTF-8 Support Enabled
DEBUG - 2016-05-17 16:01:04 --> Global POST, GET and COOKIE data sanitized
DEBUG - 2016-05-17 16:01:04 --> Config file loaded: D:\xampp\htdocs\miapi\application\config/rest.php
DEBUG - 2016-05-17 16:01:04 --> Total execution time: 0.0768
DEBUG - 2016-05-17 16:01:49 --> UTF-8 Support Enabled
DEBUG - 2016-05-17 16:01:50 --> Global POST, GET and COOKIE data sanitized
DEBUG - 2016-05-17 16:01:50 --> Config file loaded: D:\xampp\htdocs\miapi\application\config/rest.php
DEBUG - 2016-05-17 16:01:50 --> Total execution time: 0.0584
DEBUG - 2016-05-17 16:01:51 --> UTF-8 Support Enabled
DEBUG - 2016-05-17 16:01:51 --> Global POST, GET and COOKIE data sanitized
DEBUG - 2016-05-17 16:01:51 --> Config file loaded: D:\xampp\htdocs\miapi\application\config/rest.php
DEBUG - 2016-05-17 16:01:51 --> Total execution time: 0.0479
DEBUG - 2016-05-17 16:01:51 --> UTF-8 Support Enabled
DEBUG - 2016-05-17 16:01:51 --> Global POST, GET and COOKIE data sanitized
DEBUG - 2016-05-17 16:01:51 --> Config file loaded: D:\xampp\htdocs\miapi\application\config/rest.php
DEBUG - 2016-05-17 16:01:51 --> Total execution time: 0.0491
DEBUG - 2016-05-17 16:01:52 --> UTF-8 Support Enabled
DEBUG - 2016-05-17 16:01:52 --> Global POST, GET and COOKIE data sanitized
DEBUG - 2016-05-17 16:01:52 --> Config file loaded: D:\xampp\htdocs\miapi\application\config/rest.php
DEBUG - 2016-05-17 16:01:52 --> Total execution time: 0.0542
DEBUG - 2016-05-17 16:01:52 --> UTF-8 Support Enabled
DEBUG - 2016-05-17 16:01:52 --> Global POST, GET and COOKIE data sanitized
DEBUG - 2016-05-17 16:01:52 --> Config file loaded: D:\xampp\htdocs\miapi\application\config/rest.php
DEBUG - 2016-05-17 16:01:52 --> Total execution time: 0.0477
